{
  "cities": [
    {
      "id": "BCN",
      "name": "Barcelona"
    },
    {
      "id": "MAD",
      "name": "Madrid"
    },
    {
      "id": "VLC",
      "name": "Valencia"
    }
  ],
  "categories": [
    {
      "id": 1,
      "cityId": "MAD",
      "name": "Supermercado",
      "imageUrl": "../../../../assets/supermercado.png"
    },
    {
      "id": 2,
      "cityId": "MAD",
      "name": "Restaurantes",
      "imageUrl": "../../../../assets/restaurantes.png"
    },
    {
      "id": 3,
      "cityId": "MAD",
      "name": "Envios Express",
      "imageUrl": "../../../../assets/envios.jpg"
    },
    {
      "id": 4,
      "cityId": "MAD",
      "name": "Farmacia",
      "imageUrl": "../../../../assets/farmacia.jpg"
    },
    {
      "id": 5,
      "cityId": "BCN",
      "name": "Bebidas",
      "imageUrl": "../../../../assets/bebidas.png"
    },
    {
      "id": 6,
      "cityId": "BCN",
      "name": "Regalos",
      "imageUrl": "../../../../assets/regalos.jpg"
    },
    {
      "id": 7,
      "cityId": "BCN",
      "name": "Farmacia",
      "imageUrl": "../../../../assets/farmacia.jpg"
    },
    {
      "id": 8,
      "cityId": "BNC",
      "name": "Envios Express",
      "imageUrl": "../../../../assets/envios.jpg"
    },
    {
      "id": 9,
      "cityId": "BCN",
      "name": "Restaurantes",
      "imageUrl": "../../../../assets/restaurantes.png"
    },
    {
      "id": 10,
      "cityId": "BCN",
      "name": "Supermercados",
      "imageUrl": "../../../../assets/supermercado.png"
    },
    {
      "id": 11,
      "cityId": "VLC",
      "name": "Bebidas",
      "imageUrl": "../../../../assets/bebidas.png"
    },
    {
      "id": 12,
      "cityId": "VLC",
      "name": "Restaurantes",
      "imageUrl": "../../../../assets/restaurantes.png"
    },
    {
      "id": 13,
      "cityId": "VLC",
      "name": "Supermercados",
      "imageUrl": "../../../../assets/supermercado.png"
    }
  ],
  "accounts": [
    {
      "nombre": "a",
      "ciudad": "b",
      "email": "a@m.com",
      "clave": "123qwe",
      "id": 1
    },
    {
      "nombre": "sdads",
      "ciudad": "adssad",
      "email": "asdads@hotmail.com",
      "clave": "3232",
      "id": 2
    },
    {
      "nombre": "afdad",
      "ciudad": "dsdasad",
      "email": "asdas@gmail.com",
      "clave": "3232",
      "id": 3
    },
    {
      "nombre": "sadasda",
      "ciudad": "adasda",
      "email": "asdas@hotmail.com",
      "clave": "3232",
      "id": 4
    },
    {
      "nombre": "saxad",
      "ciudad": "asdasd",
      "email": "asdasd@hotmail.com",
      "clave": "3232",
      "id": 5
    },
    {
      "nombre": "asdsad",
      "ciudad": "asdasdsa",
      "email": "ASJaj@hotmail.com",
      "clave": "SDAASDAS",
      "id": 6
    },
    {
      "nombre": "Mike",
      "ciudad": "Caracas",
      "email": "mike_iaco@hotmail.com",
      "clave": "3232",
      "id": 7
    },
    {
      "nombre": "Mike",
      "ciudad": "Iacobellis",
      "email": "mike_iaco@hotmail.com",
      "clave": "3232",
      "id": 8
    },
    {
      "nombre": "mike",
      "ciudad": "caracas",
      "email": "mike@hotmail.com",
      "clave": "3232",
      "id": 9
    },
    {
      "nombre": "qwerar",
      "ciudad": "adeada",
      "email": "adasdad@hotmail.com",
      "clave": "3232",
      "id": 10
    },
    {
      "nombre": "adasd",
      "ciudad": "asdasd",
      "email": "asdasd@hotmail.com",
      "clave": "3232",
      "id": 11
    },
    {
      "nombre": "asdsad",
      "ciudad": "asdassd",
      "email": "mike_iaco@hotmail.com",
      "clave": "3232",
      "id": 12
    },
    {
      "nombre": "asdas",
      "ciudad": "wdasdas",
      "email": "asdas@hotmail.com",
      "clave": "3232",
      "id": 13
    },
    {
      "nombre": "adasd",
      "ciudad": "asda",
      "email": "asdas@hotmail.com",
      "clave": "3232",
      "id": 14
    }
  ]
}